{
    "id": "org.kde.kclock",
    "runtime": "org.kde.Platform",
    "runtime-version": "5.15-21.08",
    "sdk": "org.kde.Sdk",
    "command": "kclock",
    "tags": ["nightly"],
    "desktop-file-name-suffix": " (Nightly)",
    "finish-args": [
        "--share=ipc",
        "--share=network",
        "--socket=fallback-x11",
        "--socket=wayland",
        "--device=dri",
        "--filesystem=xdg-data/sounds",
        "--talk-name=org.freedesktop.Notifications",
        "--talk-name=org.kde.Solid.PowerManagement",
        "--own-name=org.kde.kclockd"
    ],
    "separate-locales": false,

    "modules": [
        {
            "name": "kirigamiaddons",
            "config-opts": [ "-DBUILD_TESTING=OFF" ],
            "buildsystem": "cmake-ninja",
            "sources": [ { "type": "git", "url": "https://invent.kde.org/libraries/kirigami-addons.git", "branch": "master" } ]
        },
        {
            "name": "kclock",
            "buildsystem": "cmake-ninja",
            "builddir": true,
            "sources": [ { "type": "dir", "path": ".", "skip": [".git"] } ]
        }
    ]
}
